{
  "desc": "Config for omni reporting job",
  "erp": {
    "method": "git",
    "params": {
      "url": "https://gitlab.com/openbravo/product/openbravo",
      "ver": "master"
    }
  },
  "mods": [
    {
      "method": "git",
      "params": {
        "url": "https://gitlab.com/openbravo/product/pmods/org.openbravo.reporting.integration",
        "ver": "master"
      },
      "javapackage": "org.openbravo.reporting.integration"
    },
    {
      "method": "git",
      "params": {
        "url": "https://gitlab.com/openbravo/product/pmods/org.openbravo.reporting.integration.es_ES",
        "ver": "master"
      },
      "javapackage": "org.openbravo.reporting.integration.es_ES"
    },
    {
      "method": "git",
      "params": {
        "url": "https://gitlab.com/openbravo/product/pmods/org.openbravo.reporting.integration.retail",
        "ver": "master"
      },
      "javapackage": "org.openbravo.reporting.integration.retail"
    },
    {
      "method": "git",
      "params": {
        "url": "https://gitlab.com/openbravo/product/pmods/org.openbravo.reporting.tools",
        "ver": "master"
      },
      "javapackage": "org.openbravo.reporting.tools"
    },
    {
      "method": "git",
      "params": {
        "url": "https://gitlab.com/openbravo/product/pmods/org.openbravo.reporting.tools.discount.coupons",
        "ver": "master"
      },
      "javapackage": "org.openbravo.reporting.tools.discount.coupons"
    },
    {
      "method": "git",
      "params": {
        "url": "https://gitlab.com/openbravo/product/pmods/org.openbravo.reporting.tools.distributionorder",
        "ver": "master"
      },
      "javapackage": "org.openbravo.reporting.tools.distributionorder"
    },
    {
      "method": "git",
      "params": {
        "url": "https://gitlab.com/openbravo/product/pmods/org.openbravo.reporting.tools.es_ES",
        "ver": "master"
      },
      "javapackage": "org.openbravo.reporting.tools.es_ES"
    },
    {
      "method": "git",
      "params": {
        "url": "https://gitlab.com/openbravo/product/pmods/org.openbravo.reporting.tools.giftcards",
        "ver": "master"
      },
      "javapackage": "org.openbravo.reporting.tools.giftcards"
    },
    {
      "method": "git",
      "params": {
        "url": "https://gitlab.com/openbravo/product/pmods/org.openbravo.reporting.tools.loyalty",
        "ver": "master"
      },
      "javapackage": "org.openbravo.reporting.tools.loyalty"
    },
    {
      "method": "git",
      "params": {
        "url": "https://gitlab.com/openbravo/product/pmods/org.openbravo.reporting.tools.masterdata",
        "ver": "master"
      },
      "javapackage": "org.openbravo.reporting.tools.masterdata"
    },
    {
      "method": "git",
      "params": {
        "url": "https://gitlab.com/openbravo/product/pmods/org.openbravo.reporting.tools.materialmgmt",
        "ver": "master"
      },
      "javapackage": "org.openbravo.reporting.tools.materialmgmt"
    },
    {
      "method": "git",
      "params": {
        "url": "https://gitlab.com/openbravo/product/pmods/org.openbravo.reporting.tools.merge.tickets",
        "ver": "master"
      },
      "javapackage": "org.openbravo.reporting.tools.merge.tickets"
    },
    {
      "method": "git",
      "params": {
        "url": "https://gitlab.com/openbravo/product/pmods/org.openbravo.reporting.tools.purchase",
        "ver": "master"
      },
      "javapackage": "org.openbravo.reporting.tools.purchase"
    },
    {
      "method": "git",
      "params": {
        "url": "https://gitlab.com/openbravo/product/pmods/org.openbravo.reporting.tools.reports",
        "ver": "master"
      },
      "javapackage": "org.openbravo.reporting.tools.reports"
    },
    {
      "method": "git",
      "params": {
        "url": "https://gitlab.com/openbravo/product/pmods/org.openbravo.reporting.tools.retail.envelope",
        "ver": "master"
      },
      "javapackage": "org.openbravo.reporting.tools.retail.envelope"
    },
    {
      "method": "git",
      "params": {
        "url": "https://gitlab.com/openbravo/product/pmods/org.openbravo.reporting.tools.sales",
        "ver": "master"
      },
      "javapackage": "org.openbravo.reporting.tools.sales"
    }
  ],
  "deps": [
    {
      "method": "git",
      "params": {
        "url": "https://gitlab.com/openbravo/product/pmods/org.openbravo.mobile.core",
        "ver": "master"
      },
      "javapackage": "org.openbravo.mobile.core"
    },
    {
      "method": "git",
      "params": {
        "url": "https://gitlab.com/openbravo/product/pmods/org.openbravo.retail.pack",
        "ver": "master"
      },
      "javapackage": "org.openbravo.retail.pack"
    },
    {
      "method": "git",
      "params": {
        "url": "https://gitlab.com/openbravo/product/pmods/org.openbravo.retail.config",
        "ver": "master"
      },
      "javapackage": "org.openbravo.retail.config"
    },
    {
      "method": "git",
      "params": {
        "url": "https://gitlab.com/openbravo/product/pmods/org.openbravo.retail.posterminal",
        "ver": "master"
      },
      "javapackage": "org.openbravo.retail.posterminal"
    },
    {
      "method": "git",
      "params": {
        "url": "https://gitlab.com/openbravo/product/pmods/org.openbravo.retail.poshwmanager",
        "ver": "master"
      },
      "javapackage": "org.openbravo.retail.poshwmanager"
    },
    {
      "method": "git",
      "params": {
        "url": "https://gitlab.com/openbravo/product/pmods/org.openbravo.retail.discounts",
        "ver": "master"
      },
      "javapackage": "org.openbravo.retail.discounts"
    },
    {
      "method": "git",
      "params": {
        "url": "https://gitlab.com/openbravo/product/pmods/org.openbravo.retail.sampledata",
        "ver": "master"
      },
      "javapackage": "org.openbravo.retail.sampledata"
    },
    {
      "method": "git",
      "params": {
        "url": "https://gitlab.com/openbravo/product/pmods/org.openbravo.retail.returns",
        "ver": "master"
      },
      "javapackage": "org.openbravo.retail.returns"
    }
  ],
    "scripts": {
        "checks-without-tomcat": [
            {
                "file": "omni/omni-reporting-dataloader-compilation.sh",
                "params": [
                    "$WORKSPACE"
                ]
            }
        ]
    }
}
