{
    "desc": "Config for new core2 (without pos2)",
    "erp": {
        "method": "git",
        "params": {
            "url": "https://gitlab.com/openbravo/product/openbravo",
            "ver": "master"
        }
    },
    "mods": [{
            "method": "git",
            "params": {
                "url": "https://gitlab.com/openbravo/demo/org.openbravo.demo.react.app",
                "ver": "master"
            },
            "javapackage": "org.openbravo.demo.react.app"
        },
        {
            "method": "git",
            "params": {
                "url": "https://gitlab.com/openbravo/product/pmods/org.openbravo.core2",
                "ver": "master"
            },
            "javapackage": "org.openbravo.core2"
        }
    ],
    "deps": [{
            "method": "git",
            "params": {
                "url": "https://gitlab.com/openbravo/product/pmods/org.openbravo.mobile.core",
                "ver": "master"
            },
            "javapackage": "org.openbravo.mobile.core"
        }
    ]
}
