{
    "desc": "Config for retail team",
    "erp": {
        "method": "git",
        "params": {
            "url": "https://gitlab.com/openbravo/product/openbravo",
            "ver": "release/22Q3"
        }
    },
    "mods": [
        {
            "method": "git",
            "params": {
                "url": "https://gitlab.com/openbravo/product/pmods/org.openbravo.retail.discounts.bytotal",
                "ver": "master"
            },
            "javapackage": "org.openbravo.retail.discounts.bytotal"
        },
        {
            "method": "git",
            "params": {
                "url": "https://gitlab.com/openbravo/product/pmods/org.openbravo.retail.multiupc.es_ES",
                "ver": "master"
            },
            "javapackage": "org.openbravo.retail.multiupc.es_ES"
        },
        {
            "method": "git",
            "params": {
                "url": "https://gitlab.com/openbravo/product/pmods/org.openbravo.multiupc",
                "ver": "master"
            },
            "javapackage": "org.openbravo.multiupc"
        },
        {
            "method": "git",
            "params": {
                "url": "https://gitlab.com/openbravo/product/pmods/org.openbravo.retail.discount.twofamiliescombo.es_ES",
                "ver": "master"
            },
            "javapackage": "org.openbravo.retail.discount.twofamiliescombo.es_ES"
        },
        {
            "method": "git",
            "params": {
                "url": "https://gitlab.com/openbravo/product/pmods/org.openbravo.retail.discounts.es_ES",
                "ver": "master"
            },
            "javapackage": "org.openbravo.retail.discounts.es_ES"
        },
        {
            "method": "git",
            "params": {
                "url": "https://gitlab.com/openbravo/product/pmods/org.openbravo.retail.discounts.coupons",
                "ver": "master"
            },
            "javapackage": "org.openbravo.retail.discounts.coupons"
        },
        {
            "method": "git",
            "params": {
                "url": "https://gitlab.com/openbravo/product/pmods/org.openbravo.retail.discounts.coupons.es_ES",
                "ver": "master"
            },
            "javapackage": "org.openbravo.retail.discounts.coupons.es_ES"
        },
        {
            "method": "git",
            "params": {
                "url": "https://gitlab.com/openbravo/product/pmods/org.openbravo.retail.pricecriteria",
                "ver": "master"
            },
            "javapackage": "org.openbravo.retail.pricecriteria"
        },
        {
            "method": "git",
            "params": {
                "url": "https://gitlab.com/openbravo/product/pmods/org.openbravo.retail.copystore.es_ES",
                "ver": "master"
            },
            "javapackage": "org.openbravo.retail.copystore.es_ES"
        },
        {
            "method": "git",
            "params": {
                "url": "https://gitlab.com/openbravo/product/pmods/org.openbravo.retail.posterminal.es_ES",
                "ver": "master"
            },
            "javapackage": "org.openbravo.retail.posterminal.es_ES"
        },
        {
            "method": "git",
            "params": {
                "url": "https://gitlab.com/openbravo/product/pmods/org.openbravo.retail.receiptreport",
                "ver": "master"
            },
            "javapackage": "org.openbravo.retail.receiptreport"
        },
        {
            "method": "git",
            "params": {
                "url": "https://gitlab.com/openbravo/product/pmods/org.openbravo.retail.giftcards.es_ES",
                "ver": "master"
            },
            "javapackage": "org.openbravo.retail.giftcards.es_ES"
        },
        {
            "method": "git",
            "params": {
                "url": "https://gitlab.com/openbravo/product/pmods/org.openbravo.retail.discounts.bytotal.es_ES",
                "ver": "master"
            },
            "javapackage": "org.openbravo.retail.discounts.bytotal.es_ES"
        },
        {
            "method": "git",
            "params": {
                "url": "https://gitlab.com/openbravo/product/pmods/org.openbravo.retail.discounts.category",
                "ver": "master"
            },
            "javapackage": "org.openbravo.retail.discounts.category"
        },
        {
            "method": "git",
            "params": {
                "url": "https://gitlab.com/openbravo/product/pmods/org.openbravo.retail.discounts.coupons.codegenerator",
                "ver": "master"
            },
            "javapackage": "org.openbravo.retail.discounts.coupons.codegenerator"
        },
        {
            "method": "git",
            "params": {
                "url": "https://gitlab.com/openbravo/product/pmods/org.openbravo.retail.discounts.coupons.codegenerator.es_ES",
                "ver": "master"
            },
            "javapackage": "org.openbravo.retail.discounts.coupons.codegenerator.es_ES"
        },
        {
            "method": "git",
            "params": {
                "url": "https://gitlab.com/openbravo/product/pmods/org.openbravo.retail.autobom",
                "ver": "master"
            },
            "javapackage": "org.openbravo.retail.autobom"
        },
        {
            "method": "git",
            "params": {
                "url": "https://gitlab.com/openbravo/product/pmods/org.openbravo.retail.discounts.discountmatrixmanagement",
                "ver": "master"
            },
            "javapackage": "org.openbravo.retail.discounts.discountmatrixmanagement"
        },
        {
            "method": "git",
            "params": {
                "url": "https://gitlab.com/openbravo/product/pmods/org.openbravo.retail.discount.twofamiliescombo",
                "ver": "master"
            },
            "javapackage": "org.openbravo.retail.discount.twofamiliescombo"
        },
        {
            "method": "git",
            "params": {
                "url": "https://gitlab.com/openbravo/product/pmods/org.openbravo.retail.copystore",
                "ver": "master"
            },
            "javapackage": "org.openbravo.retail.copystore"
        },
        {
            "method": "git",
            "params": {
                "url": "https://gitlab.com/openbravo/product/pmods/org.openbravo.copyprocess",
                "ver": "master"
            },
            "javapackage": "org.openbravo.copyprocess"
        },
        {
            "method": "git",
            "params": {
                "url": "https://gitlab.com/openbravo/product/pmods/org.openbravo.retail.printlast.es_ES",
                "ver": "master"
            },
            "javapackage": "org.openbravo.retail.printlast.es_ES"
        },
        {
            "method": "git",
            "params": {
                "url": "https://gitlab.com/openbravo/product/pmods/org.openbravo.retail.copystore.giftcards",
                "ver": "master"
            },
            "javapackage": "org.openbravo.retail.copystore.giftcards"
        },
        {
            "method": "git",
            "params": {
                "url": "https://gitlab.com/openbravo/product/pmods/org.openbravo.retail.complementary",
                "ver": "master"
            },
            "javapackage": "org.openbravo.retail.complementary"
        },
        {
            "method": "git",
            "params": {
                "url": "https://gitlab.com/openbravo/product/pmods/org.openbravo.retail.marginindicator",
                "ver": "master"
            },
            "javapackage": "org.openbravo.retail.marginindicator"
        },
        {
            "method": "git",
            "params": {
                "url": "https://gitlab.com/openbravo/product/pmods/org.openbravo.retail.multiupc",
                "ver": "master"
            },
            "javapackage": "org.openbravo.retail.multiupc"
        },
        {
            "method": "git",
            "params": {
                "url": "https://gitlab.com/openbravo/product/pmods/org.openbravo.retail.discounts.combo",
                "ver": "master"
            },
            "javapackage": "org.openbravo.retail.discounts.combo"
        },
        {
            "method": "git",
            "params": {
                "url": "https://gitlab.com/openbravo/product/pmods/org.openbravo.retail.fiscalprinters",
                "ver": "master"
            },
            "javapackage": "org.openbravo.retail.fiscalprinters"
        },
        {
            "method": "git",
            "params": {
                "url": "https://gitlab.com/openbravo/product/pmods/org.openbravo.retail.taxexempt",
                "ver": "master"
            },
            "javapackage": "org.openbravo.retail.taxexempt"
        },
        {
            "method": "git",
            "params": {
                "url": "https://gitlab.com/openbravo/product/pmods/org.openbravo.retail.taxexempt.fr_FR",
                "ver": "master"
            },
            "javapackage": "org.openbravo.retail.taxexempt.fr_FR"
        },
        {
            "method": "git",
            "params": {
                "url": "https://gitlab.com/openbravo/product/pmods/org.openbravo.retail.trainingmode.es_ES",
                "ver": "master"
            },
            "javapackage": "org.openbravo.retail.trainingmode.es_ES"
        },
        {
            "method": "git",
            "params": {
                "url": "https://gitlab.com/openbravo/product/pmods/org.openbravo.retail.stockvalidation",
                "ver": "master"
            },
            "javapackage": "org.openbravo.retail.stockvalidation"
        },
        {
            "method": "git",
            "params": {
                "url": "https://gitlab.com/openbravo/product/pmods/org.openbravo.retail.discounts.bypaymentmethod",
                "ver": "master"
            },
            "javapackage": "org.openbravo.retail.discounts.bypaymentmethod"
        },
        {
            "method": "git",
            "params": {
                "url": "https://gitlab.com/openbravo/product/pmods/org.openbravo.retail.paymentgateway",
                "ver": "master"
            },
            "javapackage": "org.openbravo.retail.paymentgateway"
        },
        {
            "method": "git",
            "params": {
                "url": "https://gitlab.com/openbravo/product/pmods/org.openbravo.retail.giftcards",
                "ver": "master"
            },
            "javapackage": "org.openbravo.retail.giftcards"
        },
        {
            "method": "git",
            "params": {
                "url": "https://gitlab.com/openbravo/product/pmods/org.openbravo.retail.config.es_ES",
                "ver": "master"
            },
            "javapackage": "org.openbravo.retail.config.es_ES"
        },
        {
            "method": "git",
            "params": {
                "url": "https://gitlab.com/openbravo/product/pmods/org.openbravo.multiupc.es_ES",
                "ver": "master"
            },
            "javapackage": "org.openbravo.multiupc.es_ES"
        },
        {
            "method": "git",
            "params": {
                "url": "https://gitlab.com/openbravo/product/pmods/org.openbravo.retail.taxexempt.es_ES",
                "ver": "master"
            },
            "javapackage": "org.openbravo.retail.taxexempt.es_ES"
        },
        {
            "method": "git",
            "params": {
                "url": "https://gitlab.com/openbravo/product/pmods/org.openbravo.retail.showprodsk.es_ES",
                "ver": "master"
            },
            "javapackage": "org.openbravo.retail.showprodsk.es_ES"
        },
        {
            "method": "git",
            "params": {
                "url": "https://gitlab.com/openbravo/product/pmods/org.openbravo.retail.stockcriteria",
                "ver": "master"
            },
            "javapackage": "org.openbravo.retail.stockcriteria"
        },
        {
            "method": "git",
            "params": {
                "url": "https://gitlab.com/openbravo/product/pmods/org.openbravo.retail.stockcriteria.es_ES",
                "ver": "master"
            },
            "javapackage": "org.openbravo.retail.stockcriteria.es_ES"
        },
        {
            "method": "git",
            "params": {
                "url": "https://gitlab.com/openbravo/product/pmods/org.openbravo.retail.sessions.es_ES",
                "ver": "master"
            },
            "javapackage": "org.openbravo.retail.sessions.es_ES"
        },
        {
            "method": "git",
            "params": {
                "url": "https://gitlab.com/openbravo/product/pmods/org.openbravo.retail.levelpricing",
                "ver": "master"
            },
            "javapackage": "org.openbravo.retail.levelpricing"
        },
        {
            "method": "git",
            "params": {
                "url": "https://gitlab.com/openbravo/product/pmods/org.openbravo.retail.activediscountspopup",
                "ver": "master"
            },
            "javapackage": "org.openbravo.retail.activediscountspopup"
        },
        {
            "method": "git",
            "params": {
                "url": "https://gitlab.com/openbravo/product/pmods/org.openbravo.retail.bestsellers.es_ES",
                "ver": "master"
            },
            "javapackage": "org.openbravo.retail.bestsellers.es_ES"
        },
        {
            "method": "git",
            "params": {
                "url": "https://gitlab.com/openbravo/product/pmods/org.openbravo.retail.copybestsellers",
                "ver": "master"
            },
            "javapackage": "org.openbravo.retail.copybestsellers"
        },
        {
            "method": "git",
            "params": {
                "url": "https://gitlab.com/openbravo/product/pmods/org.openbravo.retail.copybestsellers.es_ES",
                "ver": "master"
            },
            "javapackage": "org.openbravo.retail.copybestsellers.es_ES"
        },
        {
            "method": "git",
            "params": {
                "url": "https://gitlab.com/openbravo/product/pmods/org.openbravo.retail.discounts.scaledprice",
                "ver": "master"
            },
            "javapackage": "org.openbravo.retail.discounts.scaledprice"
        },
        {
            "method": "git",
            "params": {
                "url": "https://gitlab.com/openbravo/product/pmods/org.openbravo.retail.discounts.scaledprice.es_ES",
                "ver": "master"
            },
            "javapackage": "org.openbravo.retail.discounts.scaledprice.es_ES"
        },
        {
            "method": "git",
            "params": {
                "url": "https://gitlab.com/openbravo/product/pmods/org.openbravo.retail.pack.es_ES",
                "ver": "master"
            },
            "javapackage": "org.openbravo.retail.pack.es_ES"
        },
        {
            "method": "git",
            "params": {
                "url": "https://gitlab.com/openbravo/product/pmods/org.openbravo.retail.loyalty",
                "ver": "master"
            },
            "javapackage": "org.openbravo.retail.loyalty"
        },
        {
            "method": "git",
            "params": {
                "url": "https://gitlab.com/openbravo/product/pmods/org.openbravo.retail.discounts.combo.es_ES",
                "ver": "master"
            },
            "javapackage": "org.openbravo.retail.discounts.combo.es_ES"
        },
        {
            "method": "git",
            "params": {
                "url": "https://gitlab.com/openbravo/product/pmods/org.openbravo.retail.returns.es_ES",
                "ver": "master"
            },
            "javapackage": "org.openbravo.retail.returns.es_ES"
        },
        {
            "method": "git",
            "params": {
                "url": "https://gitlab.com/openbravo/product/pmods/org.openbravo.retail.bestsellers",
                "ver": "master"
            },
            "javapackage": "org.openbravo.retail.bestsellers"
        },
        {
            "method": "git",
            "params": {
                "url": "https://gitlab.com/openbravo/product/pmods/org.openbravo.retail.productcost",
                "ver": "master"
            },
            "javapackage": "org.openbravo.retail.productcost"
        },
        {
            "method": "git",
            "params": {
                "url": "https://gitlab.com/openbravo/product/pmods/org.openbravo.pricing.levelpricing",
                "ver": "master"
            },
            "javapackage": "org.openbravo.pricing.levelpricing"
        },
        {
            "method": "git",
            "params": {
                "url": "https://gitlab.com/openbravo/product/pmods/org.openbravo.retail.showprodsk",
                "ver": "master"
            },
            "javapackage": "org.openbravo.retail.showprodsk"
        },
        {
            "method": "git",
            "params": {
                "url": "https://gitlab.com/openbravo/product/pmods/org.openbravo.retail.trainingmode",
                "ver": "master"
            },
            "javapackage": "org.openbravo.retail.trainingmode"
        },
        {
            "method": "git",
            "params": {
                "url": "https://gitlab.com/openbravo/product/pmods/org.openbravo.retail.printlast",
                "ver": "master"
            },
            "javapackage": "org.openbravo.retail.printlast"
        },
        {
            "method": "git",
            "params": {
                "url": "https://gitlab.com/openbravo/product/pmods/org.openbravo.retail.printlast.fr_FR",
                "ver": "master"
            },
            "javapackage": "org.openbravo.retail.printlast.fr_FR"
        },
        {
            "method": "git",
            "params": {
                "url": "https://gitlab.com/openbravo/product/pmods/org.openbravo.retail.sessions",
                "ver": "master"
            },
            "javapackage": "org.openbravo.retail.sessions"
        },
        {
            "method": "git",
            "params": {
                "url": "https://gitlab.com/openbravo/product/pmods/org.openbravo.retail.sessions.fr_FR",
                "ver": "master"
            },
            "javapackage": "org.openbravo.retail.sessions.fr_FR"
        },
        {
            "method": "git",
            "params": {
                "url": "https://gitlab.com/openbravo/product/pmods/org.openbravo.mobile.core.es_ES",
                "ver": "master"
            },
            "javapackage": "org.openbravo.mobile.core.es_ES"
        },
        {
            "method": "git",
            "params": {
                "url": "https://gitlab.com/openbravo/product/pmods/org.openbravo.retail.lowcostapproval",
                "ver": "master"
            },
            "javapackage": "org.openbravo.retail.lowcostapproval"
        },
        {
            "method": "git",
            "params": {
                "url": "https://gitlab.com/openbravo/product/pmods/org.openbravo.retail.salesrepresentative",
                "ver": "master"
            },
            "javapackage": "org.openbravo.retail.salesrepresentative"
        },
        {
            "method": "git",
            "params": {
                "url": "https://gitlab.com/openbravo/product/pmods/org.openbravo.paymentgateway.elementps",
                "ver": "master"
            },
            "javapackage": "org.openbravo.paymentgateway.elementps"
        },
        {
            "method": "git",
            "params": {
                "url": "https://gitlab.com/openbravo/product/pmods/org.openbravo.retail.productonthefly",
                "ver": "master"
            },
            "javapackage": "org.openbravo.retail.productonthefly"
        },
        {
            "method": "git",
            "params": {
                "url": "https://gitlab.com/openbravo/product/pmods/org.openbravo.retail.scanreceipt",
                "ver": "master"
            },
            "javapackage": "org.openbravo.retail.scanreceipt"
        },
        {
            "method": "git",
            "params": {
                "url": "https://gitlab.com/openbravo/product/pmods/org.openbravo.retail.digitalcoupons",
                "ver": "master"
            },
            "javapackage": "org.openbravo.retail.digitalcoupons"
        },
        {
            "method": "git",
            "params": {
                "url": "https://gitlab.com/openbravo/product/pmods/org.openbravo.retail.selfcheckout",
                "ver": "master"
            },
            "javapackage": "org.openbravo.retail.selfcheckout"
        },
        {
            "method": "git",
            "params": {
                "url": "https://gitlab.com/openbravo/product/pmods/org.openbravo.retail.fastbrowse",
                "ver": "master"
            },
            "javapackage": "org.openbravo.retail.fastbrowse"
        },
        {
            "method": "git",
            "params": {
                "url": "https://gitlab.com/openbravo/product/pmods/org.openbravo.retail.fastbrowse.es_ES",
                "ver": "master"
            },
            "javapackage": "org.openbravo.retail.fastbrowse.es_ES"
        },
        {
            "method": "git",
            "params": {
                "url": "https://gitlab.com/openbravo/product/pmods/org.openbravo.retail.verystar",
                "ver": "master"
            },
            "javapackage": "org.openbravo.retail.verystar"
        },
        {
            "method": "git",
            "params": {
                "url": "https://gitlab.com/openbravo/product/pmods/org.openbravo.retail.selfcheckout.verystar",
                "ver": "master"
            },
            "javapackage": "org.openbravo.retail.selfcheckout.verystar"
        },
        {
            "method": "git",
            "params": {
                "url": "https://gitlab.com/openbravo/product/pmods/org.openbravo.pricing.scalablelevelpricing",
                "ver": "master"
            },
            "javapackage": "org.openbravo.pricing.scalablelevelpricing"
        },
        {
            "method": "git",
            "params": {
                "url": "https://gitlab.com/openbravo/ci/modules/org.openbravo.certification.france.dev",
                "ver": "master"
            },
            "javapackage": "org.openbravo.certification.france"
        },
        {
            "method": "git",
            "params": {
                "url": "https://gitlab.com/openbravo/ci/modules/org.openbravo.certification.france.testing",
                "ver": "master"
            },
            "javapackage": "org.openbravo.certification.france.testing"
        },
        {
            "method": "git",
            "params": {
                "url": "https://gitlab.com/openbravo/product/pmods/org.openbravo.retail.contactinfoforproduct",
                "ver": "master"
            },
            "javapackage": "org.openbravo.retail.contactinfoforproduct"
        },
        {
            "method": "git",
            "params": {
                "url": "https://gitlab.com/openbravo/product/pmods/org.openbravo.retail.servicesequence",
                "ver": "master"
            },
            "javapackage": "org.openbravo.retail.servicesequence"
        },
        {
            "method": "git",
            "params": {
                "url": "https://gitlab.com/openbravo/product/pmods/org.openbravo.retail.multitaxcategory",
                "ver": "master"
            },
            "javapackage": "org.openbravo.retail.multitaxcategory"
        },
        {
            "method": "git",
            "params": {
                "url": "https://gitlab.com/openbravo/product/pmods/org.openbravo.retail.sumupprovider",
                "ver": "master"
            },
            "javapackage": "org.openbravo.retail.sumupprovider"
        },
        {
            "method": "git",
            "params": {
                "url": "https://gitlab.com/openbravo/product/pmods/org.openbravo.retail.chasepaymentech",
                "ver": "master"
            },
            "javapackage": "org.openbravo.retail.chasepaymentech"
        },
        {
            "method": "git",
            "params": {
                "url": "https://gitlab.com/openbravo/product/pmods/org.openbravo.retail.emailphoneicons",
                "ver": "master"
            },
            "javapackage": "org.openbravo.retail.emailphoneicons"
        },
        {
            "method": "git",
            "params": {
                "url": "https://gitlab.com/openbravo/product/pmods/org.openbravo.retail.forgotpassword",
                "ver": "master"
            },
            "javapackage": "org.openbravo.retail.forgotpassword"
        },
        {
            "method": "git",
            "params": {
                "url": "https://gitlab.com/openbravo/product/pmods/org.openbravo.service.integration.magento.core",
                "ver": "master"
            },
            "javapackage": "org.openbravo.service.integration.magento.core"
        },
        {
            "method": "git",
            "params": {
                "url": "https://gitlab.com/openbravo/product/pmods/org.openbravo.service.integration.magento.mappings",
                "ver": "master"
            },
            "javapackage": "org.openbravo.service.integration.magento.mappings"
        },
        {
            "method": "git",
            "params": {
                "url": "https://gitlab.com/openbravo/product/pmods/org.openbravo.retail.activediscountspopup.es_ES",
                "ver": "master"
            },
            "javapackage": "org.openbravo.retail.activediscountspopup.es_ES"
        },
        {
            "method": "git",
            "params": {
                "url": "https://gitlab.com/openbravo/product/pmods/org.openbravo.retail.complementary.es_ES",
                "ver": "master"
            },
            "javapackage": "org.openbravo.retail.complementary.es_ES"
        },
        {
            "method": "git",
            "params": {
                "url": "https://gitlab.com/openbravo/product/pmods/org.openbravo.retail.digitalcoupons.es_ES",
                "ver": "master"
            },
            "javapackage": "org.openbravo.retail.digitalcoupons.es_ES"
        },
        {
            "method": "git",
            "params": {
                "url": "https://gitlab.com/openbravo/product/pmods/org.openbravo.retail.discounts.category.es_ES",
                "ver": "master"
            },
            "javapackage": "org.openbravo.retail.discounts.category.es_ES"
        },
        {
            "method": "git",
            "params": {
                "url": "https://gitlab.com/openbravo/product/pmods/org.openbravo.retail.services.autoprice",
                "ver": "master"
            },
            "javapackage": "org.openbravo.retail.services.autoprice"
        },
        {
            "method": "git",
            "params": {
                "url": "https://gitlab.com/openbravo/product/pmods/org.openbravo.retail.autocancelreservation",
                "ver": "master"
            },
            "javapackage": "org.openbravo.retail.autocancelreservation"
        },
        {
            "method": "git",
            "params": {
                "url": "https://gitlab.com/openbravo/product/pmods/org.openbravo.loyalty.programs",
                "ver": "master"
            },
            "javapackage": "org.openbravo.loyalty.programs"
        },
        {
            "method": "git",
            "params": {
                "url": "https://gitlab.com/openbravo/product/pmods/org.openbravo.loyalty.programs.es_ES",
                "ver": "master"
            },
            "javapackage": "org.openbravo.loyalty.programs.es_ES"
        },
        {
            "method": "git",
            "params": {
                "url": "https://gitlab.com/openbravo/product/pmods/org.openbravo.retail.loyalty.programs",
                "ver": "master"
            },
            "javapackage": "org.openbravo.retail.loyalty.programs"
        },
        {
            "method": "git",
            "params": {
                "url": "https://gitlab.com/openbravo/product/pmods/org.openbravo.retail.loyalty.programs.es_ES",
                "ver": "master"
            },
            "javapackage": "org.openbravo.retail.loyalty.programs.es_ES"
        },
        {
            "method": "git",
            "params": {
                "url": "https://gitlab.com/openbravo/product/pmods/org.openbravo.oms",
                "ver": "master"
            },
            "javapackage": "org.openbravo.oms"
        },
        {
            "method": "git",
            "params": {
                "url": "https://gitlab.com/openbravo/product/pmods/org.openbravo.retail.oms.orderconfirmation",
                "ver": "master"
            },
            "javapackage": "org.openbravo.retail.oms.orderconfirmation"
        },
        {
            "method": "git",
            "params": {
                "url": "https://gitlab.com/openbravo/product/pmods/org.openbravo.retail.rtprinter",
                "ver": "master"
            },
            "javapackage": "org.openbravo.retail.rtprinter"
        },
        {
            "method": "git",
            "params": {
                "url": "https://gitlab.com/openbravo/product/pmods/org.openbravo.api",
                "ver": "master"
            },
            "javapackage": "org.openbravo.api"
        },
        {
            "method": "git",
            "params": {
                "url": "https://gitlab.com/openbravo/product/pmods/org.openbravo.service.openapi",
                "ver": "master"
            },
            "javapackage": "org.openbravo.service.openapi"
        },
        {
            "method": "git",
            "params": {
                "url": "https://gitlab.com/openbravo/product/mods/org.openbravo.france.ecotax",
                "ver": "master"
            },
            "javapackage": "org.openbravo.france.ecotax"
        },
        {
            "method": "git",
            "params": {
                "url": "https://gitlab.com/openbravo/product/pmods/org.openbravo.oms.retail",
                "ver": "master"
            },
            "javapackage": "org.openbravo.oms.retail"
        },
        {
            "method": "git",
            "params": {
                "url": "https://gitlab.com/openbravo/product/pmods/org.openbravo.retail.api",
                "ver": "master"
            },
            "javapackage": "org.openbravo.retail.api"
        },
        {
            "method": "git",
            "params": {
                "url": "https://gitlab.com/openbravo/product/pmods/org.openbravo.retail.asyncpayprovider",
                "ver": "master"
            },
            "javapackage": "org.openbravo.retail.asyncpayprovider"
        },
        {
            "method": "git",
            "params": {
                "url": "https://gitlab.com/openbravo/product/pmods/org.openbravo.retail.axisc3",
                "ver": "master"
            },
            "javapackage": "org.openbravo.retail.axisc3"
        },
        {
            "method": "git",
            "params": {
                "url": "https://gitlab.com/openbravo/product/mods/org.openbravo.retail.france.ecotax",
                "ver": "master"
            },
            "javapackage": "org.openbravo.retail.france.ecotax"
        },
        {
            "method": "git",
            "params": {
                "url": "https://gitlab.com/openbravo/product/pmods/org.openbravo.retail.nexoprovider",
                "ver": "master"
            },
            "javapackage": "org.openbravo.retail.nexoprovider"
        },
        {
            "method": "git",
            "params": {
                "url": "https://gitlab.com/openbravo/ci/modules/org.openbravo.retail.samplebpintegration",
                "ver": "release/22Q3"
            },
            "javapackage": "org.openbravo.retail.samplebpintegration"
        },
        {
            "method": "git",
            "params": {
                "url": "https://gitlab.com/openbravo/product/pmods/org.openbravo.retail.selfcheckout.asyncpayprovider",
                "ver": "master"
            },
            "javapackage": "org.openbravo.retail.selfcheckout.asyncpayprovider"
        },
        {
            "method": "git",
            "params": {
                "url": "https://gitlab.com/openbravo/product/pmods/org.openbravo.retail.selfcheckout.nexoprovider",
                "ver": "master"
            },
            "javapackage": "org.openbravo.retail.selfcheckout.nexoprovider"
        },
        {
            "method": "git",
            "params": {
                "url": "https://gitlab.com/openbravo/product/pmods/org.openbravo.taxes",
                "ver": "master"
            },
            "javapackage": "org.openbravo.taxes"
        },
        {
            "method": "git",
            "params": {
                "url": "https://gitlab.com/openbravo/product/pmods/org.openbravo.warehouse.advancedwarehouseoperations.batchwavepicking",
                "ver": "master"
            },
            "javapackage": "org.openbravo.warehouse.advancedwarehouseoperations.batchwavepicking"
        },
        {
            "method": "git",
            "params": {
                "url": "https://gitlab.com/openbravo/product/pmods/org.openbravo.warehouse.advancedwarehouseoperations.edl",
                "ver": "master"
            },
            "javapackage": "org.openbravo.warehouse.advancedwarehouseoperations.edl"
        },
        {
            "method": "git",
            "params": {
                "url": "https://gitlab.com/openbravo/product/pmods/org.openbravo.warehouse.advancedwarehouseoperations.operatorloadbalancing",
                "ver": "master"
            },
            "javapackage": "org.openbravo.warehouse.advancedwarehouseoperations.operatorloadbalancing"
        },
        {
            "method": "git",
            "params": {
                "url": "https://gitlab.com/openbravo/product/pmods/org.openbravo.warehouse.advancedwarehouseoperations.selfreplenishment",
                "ver": "master"
            },
            "javapackage": "org.openbravo.warehouse.advancedwarehouseoperations.selfreplenishment"
        },
        {
            "method": "git",
            "params": {
                "url": "https://gitlab.com/openbravo/product/pmods/org.openbravo.retail.rtserver",
                "ver": "master"
            },
            "javapackage": "org.openbravo.retail.rtserver"
        },
        {
            "method": "git",
            "params": {
                "url": "https://gitlab.com/openbravo/product/pmods/org.openbravo.retail.lotterycode",
                "ver": "master"
            },
            "javapackage": "org.openbravo.retail.lotterycode"
        },
        {
            "method": "git",
            "params": {
                "url": "https://gitlab.com/openbravo/product/pmods/org.openbravo.retail.selfcheckout.lotterycode",
                "ver": "master"
            },
            "javapackage": "org.openbravo.retail.selfcheckout.lotterycode"
        },
        {
            "method": "git",
            "params": {
                "url": "https://gitlab.com/openbravo/product/pmods/org.openbravo.retail.selfcheckout.rtserver",
                "ver": "master"
            },
            "javapackage": "org.openbravo.retail.selfcheckout.rtserver"
        },
        {
            "method": "git",
            "params": {
                "url": "https://gitlab.com/openbravo/product/pmods/org.openbravo.retail.api.giftcards",
                "ver": "master"
            },
            "javapackage": "org.openbravo.retail.api.giftcards"
        },
        {
            "method": "git",
            "params": {
                "url": "https://gitlab.com/openbravo/product/pmods/org.openbravo.retail.api.multiupc",
                "ver": "master"
            },
            "javapackage": "org.openbravo.retail.api.multiupc"
        },
        {
            "method": "git",
            "params": {
                "url": "https://gitlab.com/openbravo/product/pmods/org.openbravo.retail.api.complementary",
                "ver": "master"
            },
            "javapackage": "org.openbravo.retail.api.complementary"
        },
        {
            "method": "git",
            "params": {
                "url": "https://gitlab.com/openbravo/product/pmods/org.openbravo.retail.checkpayment",
                "ver": "master"
            },
            "javapackage": "org.openbravo.retail.checkpayment"
        },
        {
            "method": "git",
            "params": {
                "url": "https://gitlab.com/openbravo/product/pmods/org.openbravo.retail.avalaraconnector",
                "ver": "master"
            },
            "javapackage": "org.openbravo.retail.avalaraconnector"
        },
        {
            "method": "git",
            "params": {
                "url": "https://gitlab.com/openbravo/product/pmods/org.openbravo.dqm.capency",
                "ver": "master"
            },
            "javapackage": "org.openbravo.dqm.capency"
        },
        {
            "method": "git",
            "params": {
                "url": "https://gitlab.com/openbravo/ci/modules/org.openbravo.dqm.capency.testing",
                "ver": "master"
            },
            "javapackage": "org.openbravo.dqm.capency.testing"
        },
        {
            "method": "git",
            "params": {
                "url": "https://gitlab.com/openbravo/product/pmods/org.openbravo.api.ticket",
                "ver": "master"
            },
            "javapackage": "org.openbravo.api.ticket"
        },
        {
            "method": "git",
            "params": {
                "url": "https://gitlab.com/openbravo/product/pmods/org.openbravo.financial.multitaxcategory",
                "ver": "master"
            },
            "javapackage": "org.openbravo.financial.multitaxcategory"
        },
        {
            "method": "git",
            "params": {
                "url": "https://gitlab.com/openbravo/product/pmods/org.openbravo.financial.multitaxcategory.es_ES",
                "ver": "master"
            },
            "javapackage": "org.openbravo.financial.multitaxcategory.es_ES"
        },
        {
            "method": "git",
            "params": {
                "url": "https://gitlab.com/openbravo/product/pmods/org.openbravo.financial.posfinancialaccount",
                "ver": "master"
            },
            "javapackage": "org.openbravo.financial.posfinancialaccount"
        },
        {
            "method": "git",
            "params": {
                "url": "https://gitlab.com/openbravo/product/pmods/org.openbravo.financial.posfinancialaccount.template",
                "ver": "master"
            },
            "javapackage": "org.openbravo.financial.posfinancialaccount.template"
        },
        {
            "method": "git",
            "params": {
                "url": "https://gitlab.com/openbravo/product/pmods/org.openbravo.idl.variants",
                "ver": "master"
            },
            "javapackage": "org.openbravo.idl.variants"
        },
        {
            "method": "git",
            "params": {
                "url": "https://gitlab.com/openbravo/product/pmods/org.openbravo.retail.api.france.ecotax",
                "ver": "master"
            },
            "javapackage": "org.openbravo.retail.api.france.ecotax"
        },
        {
            "method": "git",
            "params": {
                "url": "https://gitlab.com/openbravo/product/pmods/org.openbravo.retail.copystore.digitalcoupons",
                "ver": "master"
            },
            "javapackage": "org.openbravo.retail.copystore.digitalcoupons"
        },
        {
            "method": "git",
            "params": {
                "url": "https://gitlab.com/openbravo/product/pmods/org.openbravo.retail.copystore.orderpreparation",
                "ver": "master"
            },
            "javapackage": "org.openbravo.retail.copystore.orderpreparation"
        },
        {
            "method": "git",
            "params": {
                "url": "https://gitlab.com/openbravo/product/pmods/org.openbravo.retail.discounts.cost",
                "ver": "master"
            },
            "javapackage": "org.openbravo.retail.discounts.cost"
        },
        {
            "method": "git",
            "params": {
                "url": "https://gitlab.com/openbravo/product/pmods/org.openbravo.retail.maxlevelofcash",
                "ver": "master"
            },
            "javapackage": "org.openbravo.retail.maxlevelofcash"
        },
        {
            "method": "git",
            "params": {
                "url": "https://gitlab.com/openbravo/product/pmods/org.openbravo.retail.orderpreparation",
                "ver": "master"
            },
            "javapackage": "org.openbravo.retail.orderpreparation"
        },
        {
            "method": "git",
            "params": {
                "url": "https://gitlab.com/openbravo/product/pmods/org.openbravo.retail.orderpreparation.es_ES",
                "ver": "master"
            },
            "javapackage": "org.openbravo.retail.orderpreparation.es_ES"
        },
        {
            "method": "git",
            "params": {
                "url": "https://gitlab.com/openbravo/product/pmods/org.openbravo.retail.paymentmethodadditionalinfo",
                "ver": "master"
            },
            "javapackage": "org.openbravo.retail.paymentmethodadditionalinfo"
        },
        {
            "method": "git",
            "params": {
                "url": "https://gitlab.com/openbravo/product/pmods/org.openbravo.retail.productranking",
                "ver": "master"
            },
            "javapackage": "org.openbravo.retail.productranking"
        },
        {
            "method": "git",
            "params": {
                "url": "https://gitlab.com/openbravo/product/pmods/org.openbravo.retail.productrelevance",
                "ver": "master"
            },
            "javapackage": "org.openbravo.retail.productrelevance"
        },
        {
            "method": "git",
            "params": {
                "url": "https://gitlab.com/openbravo/product/pmods/org.openbravo.retail.sendemail",
                "ver": "master"
            },
            "javapackage": "org.openbravo.retail.sendemail"
        },
        {
            "method": "git",
            "params": {
                "url": "https://gitlab.com/openbravo/product/pmods/org.openbravo.retail.returns.fr_FR",
                "ver": "master"
            },
            "javapackage": "org.openbravo.retail.returns.fr_FR"
        }
    ],
    "deps": [
        {
            "method": "git",
            "params": {
                "url": "https://gitlab.com/openbravo/product/pmods/org.openbravo.retail.pack",
                "ver": "release/22Q3"
            },
            "javapackage": "org.openbravo.retail.pack"
        },
        {
            "method": "git",
            "params": {
                "url": "https://gitlab.com/openbravo/product/pmods/org.openbravo.retail.returns",
                "ver": "release/22Q3"
            },
            "javapackage": "org.openbravo.retail.returns"
        },
        {
            "method": "git",
            "params": {
                "url": "https://gitlab.com/openbravo/product/pmods/org.openbravo.retail.poshwmanager",
                "ver": "release/22Q3"
            },
            "javapackage": "org.openbravo.retail.poshwmanager"
        },
        {
            "method": "git",
            "params": {
                "url": "https://gitlab.com/openbravo/product/pmods/org.openbravo.mobile.core",
                "ver": "release/22Q3"
            },
            "javapackage": "org.openbravo.mobile.core"
        },
        {
            "method": "git",
            "params": {
                "url": "https://gitlab.com/openbravo/product/pmods/org.openbravo.retail.config",
                "ver": "release/22Q3"
            },
            "javapackage": "org.openbravo.retail.config"
        },
        {
            "method": "git",
            "params": {
                "url": "https://gitlab.com/openbravo/product/pmods/org.openbravo.retail.posterminal",
                "ver": "release/22Q3"
            },
            "javapackage": "org.openbravo.retail.posterminal"
        },
        {
            "method": "git",
            "params": {
                "url": "https://gitlab.com/openbravo/product/pmods/org.openbravo.retail.discounts",
                "ver": "release/22Q3"
            },
            "javapackage": "org.openbravo.retail.discounts"
        },
        {
            "method": "git",
            "params": {
                "url": "https://gitlab.com/openbravo/ci/modules/org.openbravo.retail.testsampledata",
                "ver": "master"
            },
            "javapackage": "org.openbravo.retail.testsampledata"
        },
        {
            "method": "git",
            "params": {
                "url": "https://gitlab.com/openbravo/ci/modules/org.openbravo.test.mobile.sampledata",
                "ver": "master"
            },
            "javapackage": "org.openbravo.test.mobile.sampledata"
        },
        {
            "method": "git",
            "params": {
                "url": "https://gitlab.com/openbravo/product/mods/org.openbravo.module.languagelocalname",
                "ver": "master"
            },
            "javapackage": "org.openbravo.module.languagelocalname"
        },
        {
            "method": "git",
            "params": {
                "url": "https://gitlab.com/openbravo/product/pmods/org.openbravo.warehouse.advancedwarehouseoperations",
                "ver": "master"
            },
            "javapackage": "org.openbravo.warehouse.advancedwarehouseoperations"
        },
        {
            "method": "git",
            "params": {
                "url": "https://gitlab.com/openbravo/product/pmods/org.openbravo.warehouse.advancedwarehouseoperations.printing.bartender",
                "ver": "master"
            },
            "javapackage": "org.openbravo.warehouse.advancedwarehouseoperations.printing.bartender"
        },
        {
            "method": "git",
            "params": {
                "url": "https://gitlab.com/openbravo/product/pmods/org.openbravo.warehouse.advancedwarehouseoperations.template",
                "ver": "master"
            },
            "javapackage": "org.openbravo.warehouse.advancedwarehouseoperations.template"
        },
        {
            "method": "git",
            "params": {
                "url": "https://gitlab.com/openbravo/ci/modules/org.openbravo.warehouse.advancedwarehouseoperations.sampledata",
                "ver": "master"
            },
            "javapackage": "org.openbravo.warehouse.advancedwarehouseoperations.sampledata"
        },
        {
            "method": "git",
            "params": {
                "url": "https://gitlab.com/openbravo/product/mods/org.openbravo.distributionorder",
                "ver": "master"
            },
            "javapackage": "org.openbravo.distributionorder"
        },
        {
            "method": "git",
            "params": {
                "url": "https://gitlab.com/openbravo/product/pmods/org.openbravo.warehouse.advancedwarehouseoperations.distributionorders",
                "ver": "master"
            },
            "javapackage": "org.openbravo.warehouse.advancedwarehouseoperations.distributionorders"
        },
        {
            "method": "git",
            "params": {
                "url": "https://gitlab.com/openbravo/product/pmods/org.openbravo.warehouse.advancedwarehouseoperations.retailconnector",
                "ver": "master"
            },
            "javapackage": "org.openbravo.warehouse.advancedwarehouseoperations.retailconnector"
        },
        {
            "method": "git",
            "params": {
                "url": "https://gitlab.com/openbravo/product/mods/org.openbravo.utility.opencsv",
                "ver": "master"
            },
            "javapackage": "org.openbravo.utility.opencsv"
        },
        {
            "method": "git",
            "params": {
                "url": "https://gitlab.com/openbravo/product/pmods/org.openbravo.externaldata.integration",
                "ver": "master"
            },
            "javapackage": "org.openbravo.externaldata.integration"
        },
        {
            "method": "git",
            "params": {
                "url": "https://gitlab.com/openbravo/product/pmods/org.openbravo.service.external.integration",
                "ver": "master"
            },
            "javapackage": "org.openbravo.service.external.integration"
        },
        {
            "method": "git",
            "params": {
                "url": "https://gitlab.com/openbravo/product/pmods/org.openbravo.retail.autocancelreservation",
                "ver": "master"
            },
            "javapackage": "org.openbravo.retail.autocancelreservation"
        },
        {
            "method": "git",
            "params": {
                "url": "https://gitlab.com/openbravo/product/pmods/org.openbravo.retail.copystore.excel",
                "ver": "master"
            },
            "javapackage": "org.openbravo.retail.copystore.excel"
        },
        {
            "method": "git",
            "params": {
                "url": "https://gitlab.com/openbravo/product/pmods/org.openbravo.retail.discounts.discountmatrixmanagement",
                "ver": "master"
            },
            "javapackage": "org.openbravo.retail.discounts.discountmatrixmanagement"
        },
        {
            "method": "git",
            "params": {
                "url": "https://gitlab.com/openbravo/product/pmods/org.openbravo.retail.fiscalprinters",
                "ver": "master"
            },
            "javapackage": "org.openbravo.retail.fiscalprinters"
        },
        {
            "method": "git",
            "params": {
                "url": "https://gitlab.com/openbravo/product/pmods/org.openbravo.retail.lowcostapproval",
                "ver": "master"
            },
            "javapackage": "org.openbravo.retail.lowcostapproval"
        },
        {
            "method": "git",
            "params": {
                "url": "https://gitlab.com/openbravo/product/pmods/org.openbravo.retail.paymentgateway",
                "ver": "master"
            },
            "javapackage": "org.openbravo.retail.paymentgateway"
        },
        {
            "method": "git",
            "params": {
                "url": "https://gitlab.com/openbravo/product/pmods/org.openbravo.retail.salesrepresentative",
                "ver": "master"
            },
            "javapackage": "org.openbravo.retail.salesrepresentative"
        },
        {
            "method": "git",
            "params": {
                "url": "https://gitlab.com/openbravo/product/pmods/org.openbravo.retail.copystore.giftcards",
                "ver": "master"
            },
            "javapackage": "org.openbravo.retail.copystore.giftcards"
        },
        {
            "method": "git",
            "params": {
                "url": "https://gitlab.com/openbravo/product/pmods/org.openbravo.retail.camerabarcodescanner",
                "ver": "master"
            },
            "javapackage": "org.openbravo.retail.camerabarcodescanner"
        },
        {
            "method": "git",
            "params": {
                "url": "https://gitlab.com/openbravo/product/pmods/org.openbravo.retail.camerabarcodescanner.posterminal",
                "ver": "master"
            },
            "javapackage": "org.openbravo.retail.camerabarcodescanner.posterminal"
        },
        {
            "method": "git",
            "params": {
                "url": "https://gitlab.com/openbravo/product/pmods/org.openbravo.module.resources",
                "ver": "master"
            },
            "javapackage": "org.openbravo.module.resources"
        },
        {
            "method": "git",
            "params": {
                "url": "https://gitlab.com/openbravo/product/mods/org.openbravo.module.productbomversion",
                "ver": "master"
            },
            "javapackage": "org.openbravo.module.productbomversion"
        },
        {
            "method": "git",
            "params": {
                "url": "https://gitlab.com/openbravo/product/mods/org.openbravo.module.productbomversion.template",
                "ver": "master"
            },
            "javapackage": "org.openbravo.module.productbomversion.template"
        },
        {
            "method": "git",
            "params": {
                "url": "https://gitlab.com/openbravo/product/pmods/org.openbravo.portal.member.roles",
                "ver": "master"
            },
            "javapackage": "org.openbravo.portal.member.roles"
        },
        {
            "method": "git",
            "params": {
                "url": "https://gitlab.com/openbravo/product/mods/org.openbravo.module.cashvat",
                "ver": "master"
            },
            "javapackage": "org.openbravo.module.cashvat"
        },
        {
            "method": "git",
            "params": {
                "url": "https://gitlab.com/openbravo/product/pmods/org.openbravo.retail.chequecadeau",
                "ver": "master"
            },
            "javapackage": "org.openbravo.retail.chequecadeau"
        },
        {
            "method": "git",
            "params": {
                "url": "https://gitlab.com/openbravo/product/pmods/org.openbravo.retail.discounts.coupons.otf",
                "ver": "master"
            },
            "javapackage": "org.openbravo.retail.discounts.coupons.otf"
        },
        {
            "method": "git",
            "params": {
                "url": "https://gitlab.com/openbravo/product/pmods/org.openbravo.retail.discounts.coupons.otf.es_ES",
                "ver": "master"
            },
            "javapackage": "org.openbravo.retail.discounts.coupons.otf.es_ES"
        },
        {
            "method": "git",
            "params": {
                "url": "https://gitlab.com/openbravo/product/pmods/org.openbravo.retail.selfcheckout.chasepaymentech",
                "ver": "master"
            },
            "javapackage": "org.openbravo.retail.selfcheckout.chasepaymentech"
        },
        {
            "method": "git",
            "params": {
                "url": "https://gitlab.com/openbravo/product/pmods/org.openbravo.discounts",
                "ver": "master"
            },
            "javapackage": "org.openbravo.discounts"
        },
        {
            "method": "git",
            "params": {
                "url": "https://gitlab.com/openbravo/product/pmods/org.openbravo.loyalty.burn.coupon",
                "ver": "master"
            },
            "javapackage": "org.openbravo.loyalty.burn.coupon"
        },
        {
            "method": "git",
            "params": {
                "url": "https://gitlab.com/openbravo/product/pmods/org.openbravo.loyalty.burn.expired",
                "ver": "master"
            },
            "javapackage": "org.openbravo.loyalty.burn.expired"
        },
        {
            "method": "git",
            "params": {
                "url": "https://gitlab.com/openbravo/product/pmods/org.openbravo.loyalty.burn.giftcertificate",
                "ver": "master"
            },
            "javapackage": "org.openbravo.loyalty.burn.giftcertificate"
        },
        {
            "method": "git",
            "params": {
                "url": "https://gitlab.com/openbravo/product/pmods/org.openbravo.loyalty.earn.buyxearny",
                "ver": "master"
            },
            "javapackage": "org.openbravo.loyalty.earn.buyxearny"
        },
        {
            "method": "git",
            "params": {
                "url": "https://gitlab.com/openbravo/product/pmods/org.openbravo.retail.adyenprovider",
                "ver": "master"
            },
            "javapackage": "org.openbravo.retail.adyenprovider"
        },
        {
            "method": "git",
            "params": {
                "url": "https://gitlab.com/openbravo/product/pmods/org.openbravo.retail.autobom",
                "ver": "master"
            },
            "javapackage": "org.openbravo.retail.autobom"
        },
        {
            "method": "git",
            "params": {
                "url": "https://gitlab.com/openbravo/product/pmods/org.openbravo.retail.ingenicotsiprovider",
                "ver": "master"
            },
            "javapackage": "org.openbravo.retail.ingenicotsiprovider"
        },
        {
            "method": "git",
            "params": {
                "url": "https://gitlab.com/openbravo/product/pmods/org.openbravo.retail.loyalty.burn.coupon",
                "ver": "master"
            },
            "javapackage": "org.openbravo.retail.loyalty.burn.coupon"
        },
        {
            "method": "git",
            "params": {
                "url": "https://gitlab.com/openbravo/product/pmods/org.openbravo.retail.loyalty.burn.giftcertificate",
                "ver": "master"
            },
            "javapackage": "org.openbravo.retail.loyalty.burn.giftcertificate"
        },
        {
            "method": "git",
            "params": {
                "url": "https://gitlab.com/openbravo/product/pmods/org.openbravo.retail.productcost",
                "ver": "master"
            },
            "javapackage": "org.openbravo.retail.productcost"
        },
        {
            "method": "git",
            "params": {
                "url": "https://gitlab.com/openbravo/product/pmods/org.openbravo.service.jsexecutor",
                "ver": "master"
            },
            "javapackage": "org.openbravo.service.jsexecutor"
        },
        {
            "method": "git",
            "params": {
                "url": "https://gitlab.com/openbravo/product/pmods/org.openbravo.oms.retail",
                "ver": "master"
            },
            "javapackage": "org.openbravo.oms.retail"
        },
        {
            "method": "git",
            "params": {
                "url": "https://gitlab.com/openbravo/product/pmods/org.openbravo.retail.api",
                "ver": "master"
            },
            "javapackage": "org.openbravo.retail.api"
        },
        {
            "method": "git",
            "params": {
                "url": "https://gitlab.com/openbravo/product/pmods/org.openbravo.warehouse.advancedwarehouseoperations.batchwavepicking",
                "ver": "master"
            },
            "javapackage": "org.openbravo.warehouse.advancedwarehouseoperations.batchwavepicking"
        },
        {
            "method": "git",
            "params": {
                "url": "https://gitlab.com/openbravo/product/pmods/org.openbravo.warehouse.advancedwarehouseoperations.edl",
                "ver": "master"
            },
            "javapackage": "org.openbravo.warehouse.advancedwarehouseoperations.edl"
        },
        {
            "method": "git",
            "params": {
                "url": "https://gitlab.com/openbravo/product/pmods/org.openbravo.warehouse.advancedwarehouseoperations.operatorloadbalancing",
                "ver": "master"
            },
            "javapackage": "org.openbravo.warehouse.advancedwarehouseoperations.operatorloadbalancing"
        },
        {
            "method": "git",
            "params": {
                "url": "https://gitlab.com/openbravo/product/pmods/org.openbravo.retail.rtserver.it_IT",
                "ver": "master"
            },
            "javapackage": "org.openbravo.retail.rtserver.it_IT"
        },
        {
            "method": "git",
            "params": {
                "url": "https://gitlab.com/openbravo/product/pmods/org.openbravo.retail.lotterycode.it_IT",
                "ver": "master"
            },
            "javapackage": "org.openbravo.retail.lotterycode.it_IT"
        },
        {
            "method": "git",
            "params": {
                "url": "https://gitlab.com/openbravo/product/pmods/org.openbravo.retail.selfcheckout.lotterycode.it_IT",
                "ver": "master"
            },
            "javapackage": "org.openbravo.retail.selfcheckout.lotterycode.it_IT"
        },
        {
            "method": "git",
            "params": {
                "url": "https://gitlab.com/openbravo/product/pmods/org.openbravo.idl",
                "ver": "master"
            },
            "javapackage": "org.openbravo.idl"
        },
        {
            "method": "git",
            "params": {
                "url": "https://gitlab.com/openbravo/product/pmods/org.openbravo.module.idljava",
                "ver": "master"
            },
            "javapackage": "org.openbravo.module.idljava"
        },
        {
            "method": "git",
            "params": {
                "url": "https://gitlab.com/openbravo/product/mods/org.openbravo.module.countryisocode",
                "ver": "master"
            },
            "javapackage": "org.openbravo.module.countryisocode"
        },
        {
            "method": "git",
            "params": {
                "url": "https://gitlab.com/openbravo/ci/modules/org.openbravo.api.tests",
                "ver": "master"
            },
            "javapackage": "org.openbravo.api.tests"
        },
        {
            "method": "git",
            "params": {
                "url": "https://gitlab.com/openbravo/product/pmods/org.openbravo.discounts.propertycondition",
                "ver": "master"
            },
            "javapackage": "org.openbravo.discounts.propertycondition"
        },
        {
            "method": "git",
            "params": {
                "url": "https://gitlab.com/openbravo/product/pmods/org.openbravo.pos2.allergens.fr_FR",
                "ver": "master"
            },
            "javapackage": "org.openbravo.pos2.allergens.fr_FR"
        },
        {
            "method": "git",
            "params": {
                "url": "https://gitlab.com/openbravo/product/pmods/org.openbravo.core2",
                "ver": "release/22Q3"
            },
            "javapackage": "org.openbravo.core2"
        },
        {
            "method": "git",
            "params": {
                "url": "https://gitlab.com/openbravo/product/pmods/org.openbravo.pos2",
                "ver": "release/22Q3"
            },
            "javapackage": "org.openbravo.pos2"
        },
        {
            "method": "git",
            "params": {
                "url": "https://gitlab.com/openbravo/product/pmods/org.openbravo.pos2.allergens",
                "ver": "master"
            },
            "javapackage": "org.openbravo.pos2.allergens"
        },
        {
            "method": "git",
            "params": {
                "url": "https://gitlab.com/openbravo/product/pmods/org.openbravo.pos2.allergens.fr_FR",
                "ver": "master"
            },
            "javapackage": "org.openbravo.pos2.allergens.fr_FR"
        },
        {
            "method": "git",
            "params": {
                "url": "https://gitlab.com/openbravo/product/pmods/org.openbravo.pos2.marketingsurvey",
                "ver": "master"
            },
            "javapackage": "org.openbravo.pos2.marketingsurvey"
        },
        {
            "method": "git",
            "params": {
                "url": "https://gitlab.com/openbravo/product/pmods/org.openbravo.pos2.marketingsurvey.fr_FR",
                "ver": "master"
            },
            "javapackage": "org.openbravo.pos2.marketingsurvey.fr_FR"
        },
        {
            "method": "git",
            "params": {
                "url": "https://gitlab.com/openbravo/product/pmods/org.openbravo.pos2.restaurant",
                "ver": "master"
            },
            "javapackage": "org.openbravo.pos2.restaurant"
        },
        {
            "method": "git",
            "params": {
                "url": "https://gitlab.com/openbravo/product/pmods/org.openbravo.pos2.restaurant.fr_FR",
                "ver": "master"
            },
            "javapackage": "org.openbravo.pos2.restaurant.fr_FR"
        },
        {
            "method": "git",
            "params": {
                "url": "https://gitlab.com/openbravo/product/pmods/org.openbravo.events.core",
                "ver": "master"
            },
            "javapackage": "org.openbravo.events.core"
        },
        {
            "method": "git",
            "params": {
                "url": "https://gitlab.com/openbravo/product/pmods/org.openbravo.commercialoperations",
                "ver": "master"
            },
            "javapackage": "org.openbravo.commercialoperations"
        },
        {
            "method": "git",
            "params": {
                "url": "https://gitlab.com/openbravo/product/pmods/org.openbravo.warehouse.advancedwarehouseoperations.api",
                "ver": "master"
            },
            "javapackage": "org.openbravo.warehouse.advancedwarehouseoperations.api"
        },
        {
            "method": "git",
            "params": {
                "url": "https://gitlab.com/openbravo/product/pmods/org.openbravo.distributionorder.api",
                "ver": "master"
            },
            "javapackage": "org.openbravo.distributionorder.api"
        }
    ]
}